[libidgel.net/index.html]
[backblue.gif]
[fade.gif]
[index.html]
[libidgel.net/assets/icons/apple-touch-icon.png]
[libidgel.net/assets/icons/favicon-32x32.png]
[libidgel.net/assets/icons/favicon-16x16.png]
[libidgel.net/assets/icons/site.webmanifest]
[libidgel.net/assets/icons/safari-pinned-tab.svg]
[libidgel.net/assets/icons/favicon.ico]
[libidgel.net/assets/icons/browserconfig.xml]
[libidgel.net/assets/css/bootstrap.min.css]
[libidgel.net/assets/css/custom5.css]
[libidgel.net/assets/css/media4.css]
[libidgel.net/natal-headerf3c0.css]
[libidgel.net/csshake-slow.min.css]
[libidgel.net/assets/js/jquery.js]
[libidgel.net/assets/css/video-js.css]
[libidgel.net/assets/css/vsg-skin.css]
[libidgel.net/assets/js/videojs-ie8.min.js]
[libidgel.net/assets/images/logo.png]
[libidgel.net/images/kid-mobile-pedir2.png]
[libidgel.net/assets/images/header_botao_comprar.png]
[libidgel.net/images/kid-bengala2.png]
[libidgel.net/assets/images/bloco-two-logo1.png]
[libidgel.net/assets/images/bloco-two-logo2.png]
[libidgel.net/assets/images/bloco-two-logo3.png]
[libidgel.net/assets/images/bloco-two-logo4.png]
[libidgel.net/assets/images/bloco-two-logo5.png]
[libidgel.net/images/kid-chamada-video.jpg]
[libidgel.net/images/anvisa-logo-aprovado.png]
[libidgel.net/assets/images/graf-1.png]
[libidgel.net/assets/images/btn-adquira.png]
[libidgel.net/assets/images/bloco-05-graf.jpg]
[libidgel.net/assets/images/05-antes.jpg]
[libidgel.net/assets/images/05-depois.jpg]
[libidgel.net/assets/images/07-01.jpg]
[libidgel.net/assets/images/07-02.jpg]
[libidgel.net/assets/images/07-03.jpg]
[libidgel.net/assets/images/07-04.jpg]
[libidgel.net/assets/images/deslike.png]
[libidgel.net/assets/images/like.png]
[libidgel.net/assets/images/bloco-09-pt1.jpg]
[libidgel.net/assets/images/bloco-09-pt2.jpg]
[libidgel.net/assets/images/bloco-09-pt3.jpg]
[libidgel.net/assets/images/bloco-09-pt4.jpg]
[libidgel.net/assets/images/antes2.jpg]
[libidgel.net/assets/images/b10-bg1.jpg]
[libidgel.net/assets/images/b10-bg2.jpg]
[libidgel.net/assets/images/b10-bg3.jpg]
[libidgel.net/assets/images/b11-foto4.jpg]
[libidgel.net/assets/images/b11-foto5.jpg]
[libidgel.net/assets/images/b11-foto6.jpg]
[libidgel.net/assets/images/b12-logo.png]
[libidgel.net/assets/images/b12-logo2.png]
[libidgel.net/assets/images/b15-f3.jpg]
[libidgel.net/assets/images/b15-f4.jpg]
[libidgel.net/assets/images/b15-f1.jpg]
[libidgel.net/assets/images/b15-f2.jpg]
[libidgel.net/assets/images/b13-medico.jpg]
[libidgel.net/images/kit_novo_3.png]
[libidgel.net/images/kit_novo_5.png]
[libidgel.net/images/kit_novo_1.png]
[libidgel.net/assets/images/site-ebook.png]
[libidgel.net/assets/images/frete1.png]
[libidgel.net/assets/images/frete2.png]
[libidgel.net/assets/images/rastreio.png]
[libidgel.net/assets/images/email-logo.png]
[libidgel.net/cdn-cgi/l/email-protection.html]
[libidgel.net/cdn-cgi/scripts/5c5dd728/cloudflare-static/email-decode.min.js]
[libidgel.net/js/jquery.min.js]
[libidgel.net/js/slick.min.js]
[libidgel.net/js/nicescroll.min.js]
[libidgel.net/js/mousewheel.min.js]
[libidgel.net/js/exit.min.js]
[libidgel.net/js/cookie.min.js]
[libidgel.net/js/timer.min.js]
[libidgel.net/js/modernizr.min.js]
[libidgel.net/js/functions.js]
[s10.histats.com/js15_as.js]
[sstatic1.histats.com/0c92c.gif]
[connect.facebook.net/en_US/fbevents.js]
[libidgel.net/assets/js/functions8613.js]
[vjs.zencdn.net/7.4.1/video.js]
[libidgel.net/index.html]
[libidgel.net/assets/icons/safari-pinned-tab.svg]
[libidgel.net/assets/js/Youtube.js]
[libidgel.net/assets/fonts/glyphicons-halflings-regular.html]
[libidgel.net/assets/fonts/glyphicons-halflings-regulard41d.html]
[libidgel.net/assets/fonts/glyphicons-halflings-regular-2.html]
[libidgel.net/assets/fonts/glyphicons-halflings-regular-3.html]
[libidgel.net/assets/fonts/glyphicons-halflings-regular-4.html]
[libidgel.net/assets/css/bootstrap.min.css]
[libidgel.net/assets/fonts/glyphicons-halflings-regular-5.html]
[libidgel.net/assets/images/header_bg3.jpg]
[libidgel.net/assets/images/chat_hide.png]
[libidgel.net/assets/images/site-ebook-seta.png]
[libidgel.net/assets/css/custom5.css]
[libidgel.net/assets/css/media4.css]
[libidgel.net/snow-sparse-flipped.png]
[libidgel.net/natal-headerf3c0.css]
[libidgel.net/snow-dense.png]
[libidgel.net/csshake-slow.min.css]
[libidgel.net/assets/css/video-js.css]
[libidgel.net/assets/css/vsg-skin.css]
[libidgel.net/cdn-cgi/l/email-protection.html]
[connect.facebook.net/en_US/fbevents.js]
[libidgel.net/POST.html]
[libidgel.net/assets/fonts/assets/css/bootstrap.min.css]
[libidgel.net/assets/fonts/assets/css/custom5.css]
[libidgel.net/assets/fonts/assets/css/media4.css]
[libidgel.net/assets/fonts/natal-headerf33a.css]
[libidgel.net/assets/fonts/csshake-slow.min.css]
[libidgel.net/assets/fonts/assets/js/jquery.js]
[libidgel.net/assets/fonts/assets/css/video-js.css]
[libidgel.net/assets/fonts/assets/css/vsg-skin.css]
[libidgel.net/assets/fonts/assets/js/videojs-ie8.min.js]
[libidgel.net/assets/fonts/assets/images/logo.png]
[libidgel.net/assets/fonts/assets/images/header_botao_comprar.png]
[libidgel.net/assets/fonts/assets/images/bloco-two-logo1.png]
[libidgel.net/assets/fonts/assets/images/bloco-two-logo2.png]
[libidgel.net/assets/fonts/assets/images/bloco-two-logo3.png]
[libidgel.net/assets/fonts/assets/images/bloco-two-logo4.png]
[libidgel.net/assets/fonts/assets/images/bloco-two-logo5.png]
[libidgel.net/assets/fonts/assets/images/graf-1.png]
[libidgel.net/assets/fonts/assets/images/btn-adquira.png]
[libidgel.net/assets/fonts/assets/images/bloco-05-graf.jpg]
[libidgel.net/assets/fonts/assets/images/05-antes.jpg]
[libidgel.net/assets/fonts/assets/images/05-depois.jpg]
[libidgel.net/assets/fonts/assets/images/07-01.jpg]
[libidgel.net/assets/fonts/assets/images/07-02.jpg]
[libidgel.net/assets/fonts/assets/images/07-03.jpg]
[libidgel.net/assets/fonts/assets/images/07-04.jpg]
[libidgel.net/assets/fonts/assets/images/deslike.png]
[libidgel.net/assets/fonts/assets/images/like.png]
[libidgel.net/assets/fonts/assets/images/bloco-09-pt1.jpg]
[libidgel.net/assets/fonts/assets/images/bloco-09-pt2.jpg]
[libidgel.net/assets/fonts/assets/images/bloco-09-pt3.jpg]
[libidgel.net/assets/fonts/assets/images/bloco-09-pt4.jpg]
[libidgel.net/assets/fonts/assets/images/antes2.jpg]
[libidgel.net/assets/fonts/assets/images/b10-bg1.jpg]
[libidgel.net/assets/fonts/assets/images/b10-bg2.jpg]
[libidgel.net/assets/fonts/assets/images/b10-bg3.jpg]
[libidgel.net/assets/fonts/assets/images/b11-foto4.jpg]
[libidgel.net/assets/fonts/assets/images/b11-foto5.jpg]
[libidgel.net/assets/fonts/assets/images/b11-foto6.jpg]
[libidgel.net/assets/fonts/assets/images/b12-logo.png]
[libidgel.net/assets/fonts/assets/images/b12-logo2.png]
[libidgel.net/assets/fonts/assets/images/b15-f3.jpg]
[libidgel.net/assets/fonts/assets/images/b15-f4.jpg]
[libidgel.net/assets/fonts/assets/images/b15-f1.jpg]
[libidgel.net/assets/fonts/assets/images/b15-f2.jpg]
[libidgel.net/assets/fonts/assets/images/b13-medico.jpg]
[libidgel.net/assets/fonts/images/kit_novo_3.png]
[libidgel.net/assets/fonts/images/kit_novo_5.png]
[libidgel.net/assets/fonts/images/kit_novo_1.png]
[libidgel.net/assets/fonts/assets/images/frete1.png]
[libidgel.net/assets/fonts/assets/images/frete2.png]
[libidgel.net/assets/fonts/assets/images/rastreio.png]
[libidgel.net/assets/fonts/assets/images/email-logo.png]
[libidgel.net/assets/fonts/js/jquery.min.js]
[libidgel.net/assets/fonts/js/slick.min.js]
[libidgel.net/assets/fonts/js/nicescroll.min.js]
[libidgel.net/assets/fonts/js/mousewheel.min.js]
[libidgel.net/assets/fonts/js/exit.min.js]
[libidgel.net/assets/fonts/js/cookie.min.js]
[libidgel.net/assets/fonts/js/timer.min.js]
[libidgel.net/assets/fonts/js/modernizr.min.js]
[libidgel.net/assets/fonts/js/functions.js]
[libidgel.net/assets/fonts/assets/js/functions4dd2.js]
[libidgel.net/assets/fonts/assets/js/Youtube.js]
[libidgel.net/assets/fonts/glyphicons-halflings-regular.html]
[libidgel.net/assets/fonts/natal-header0c79.css]
[libidgel.net/assets/fonts/assets/js/functions49ff.js]
[libidgel.net/assets/fonts/glyphicons-halflings-regulard41d.html]
[libidgel.net/assets/fonts/natal-header6dcb.css]
[libidgel.net/assets/fonts/assets/js/functionsb3cc.js]
[libidgel.net/assets/fonts/glyphicons-halflings-regular-2.html]
[libidgel.net/assets/fonts/natal-header57b6.css]
[libidgel.net/assets/fonts/assets/js/functions8e39.js]
[libidgel.net/assets/fonts/glyphicons-halflings-regular-3.html]
[libidgel.net/assets/fonts/natal-header0dba.css]
[libidgel.net/assets/fonts/assets/js/functionsda7b.js]
[libidgel.net/assets/fonts/glyphicons-halflings-regular-4.html]
[libidgel.net/assets/fonts/natal-headerc616.css]
[libidgel.net/assets/fonts/assets/js/functionsde7b.js]
[libidgel.net/assets/fonts/glyphicons-halflings-regular-5.html]
[libidgel.net/natal-headere2c3.css]
[libidgel.net/POST.html]
[libidgel.net/assets/fonts/assets/css/bootstrap.min.html]
[libidgel.net/assets/fonts/assets/css/custom5.html]
[libidgel.net/assets/fonts/assets/css/media4.html]
[libidgel.net/assets/fonts/natal-headerf33a.html]
[libidgel.net/assets/fonts/csshake-slow.min.html]
[libidgel.net/assets/fonts/assets/js/jquery.html]
[libidgel.net/assets/fonts/assets/css/video-js.html]
[libidgel.net/assets/fonts/assets/css/vsg-skin.html]
[libidgel.net/assets/fonts/assets/js/videojs-ie8.min.html]
[libidgel.net/assets/fonts/assets/images/logo.html]
[libidgel.net/assets/fonts/assets/images/header_botao_comprar.html]
[libidgel.net/assets/fonts/assets/images/bloco-two-logo1.html]
[libidgel.net/assets/fonts/assets/images/bloco-two-logo2.html]
[libidgel.net/assets/fonts/assets/images/bloco-two-logo3.html]
[libidgel.net/assets/fonts/assets/images/bloco-two-logo4.html]
[libidgel.net/assets/fonts/assets/images/bloco-two-logo5.html]
[libidgel.net/assets/fonts/assets/images/graf-1.html]
[libidgel.net/assets/fonts/assets/images/btn-adquira.html]
[libidgel.net/assets/fonts/assets/images/bloco-05-graf.html]
[libidgel.net/assets/fonts/assets/images/05-antes.html]
[libidgel.net/assets/fonts/assets/images/05-depois.html]
[libidgel.net/assets/fonts/assets/images/07-01.html]
[libidgel.net/assets/fonts/assets/images/07-02.html]
[libidgel.net/assets/fonts/assets/images/07-03.html]
[libidgel.net/assets/fonts/assets/images/07-04.html]
[libidgel.net/assets/fonts/assets/images/deslike.html]
[libidgel.net/assets/fonts/assets/images/like.html]
[libidgel.net/assets/fonts/assets/images/bloco-09-pt1.html]
[libidgel.net/assets/fonts/assets/images/bloco-09-pt2.html]
[libidgel.net/assets/fonts/assets/images/bloco-09-pt3.html]
[libidgel.net/assets/fonts/assets/images/bloco-09-pt4.html]
[libidgel.net/assets/fonts/assets/images/antes2.html]
[libidgel.net/assets/fonts/assets/images/b10-bg1.html]
[libidgel.net/assets/fonts/assets/images/b10-bg2.html]
[libidgel.net/assets/fonts/assets/images/b10-bg3.html]
[libidgel.net/assets/fonts/assets/images/b11-foto4.html]
[libidgel.net/assets/fonts/assets/images/b11-foto5.html]
[libidgel.net/assets/fonts/assets/images/b11-foto6.html]
[libidgel.net/assets/fonts/assets/images/b12-logo.html]
[libidgel.net/assets/fonts/assets/images/b12-logo2.html]
[libidgel.net/assets/fonts/assets/images/b15-f3.html]
[libidgel.net/assets/fonts/assets/images/b15-f4.html]
[libidgel.net/assets/fonts/assets/images/b15-f1.html]
[libidgel.net/assets/fonts/assets/images/b15-f2.html]
[libidgel.net/assets/fonts/assets/images/b13-medico.html]
[libidgel.net/assets/fonts/images/kit_novo_3.html]
[libidgel.net/assets/fonts/images/kit_novo_5.html]
[libidgel.net/assets/fonts/images/kit_novo_1.html]
[libidgel.net/assets/fonts/assets/images/frete1.html]
[libidgel.net/assets/fonts/assets/images/frete2.html]
[libidgel.net/assets/fonts/assets/images/rastreio.html]
[libidgel.net/assets/fonts/assets/images/email-logo.html]
[libidgel.net/assets/fonts/js/jquery.min.html]
[libidgel.net/assets/fonts/js/slick.min.html]
[libidgel.net/assets/fonts/js/nicescroll.min.html]
[libidgel.net/assets/fonts/js/mousewheel.min.html]
[libidgel.net/assets/fonts/js/exit.min.html]
[libidgel.net/assets/fonts/js/cookie.min.html]
[libidgel.net/assets/fonts/js/timer.min.html]
[libidgel.net/assets/fonts/js/modernizr.min.html]
[libidgel.net/assets/fonts/js/functions.html]
[libidgel.net/assets/fonts/assets/js/functions4dd2.html]
[libidgel.net/assets/fonts/assets/js/Youtube.html]
[libidgel.net/assets/fonts/natal-header0c79.html]
[libidgel.net/assets/fonts/assets/js/functions49ff.html]
[libidgel.net/assets/fonts/natal-header6dcb.html]
[libidgel.net/assets/fonts/assets/js/functionsb3cc.html]
[libidgel.net/assets/fonts/natal-header57b6.html]
[libidgel.net/assets/fonts/assets/js/functions8e39.html]
[libidgel.net/assets/fonts/natal-header0dba.html]
[libidgel.net/assets/fonts/assets/js/functionsda7b.html]
[libidgel.net/assets/fonts/natal-headerc616.html]
[libidgel.net/assets/fonts/assets/js/functionsde7b.html]
[libidgel.net/natal-headere2c3.css]
[libidgel.net/assets/js/functions2034.js]
