date	size'/'remotesize	flags(request:Update,Range state:File response:Modified,Chunked,gZipped)	statuscode	status ('servermsg')	MIME	Etag|Date	URL	localfile	(from URL)
16:12:29	248/248	---MC-	301	error ('Moved%20Permanently')	text/html	date:Tue,%2005%20Mar%202019%2004:12:29%20GMT	https://g1-globosaude.com/homem-moderno	C:/My%20Web%20Sites/libidgel/g1-globosaude.com/homem-moderno.0.delayed	(from )
16:12:29	20639/20639	---MCZ	200	added ('OK')	text/html	date:Mon,%2011%20Feb%202019%2015:06:16%20GMT	https://g1-globosaude.com/homem-moderno/	C:/My%20Web%20Sites/libidgel/g1-globosaude.com/homem-moderno/index.html	(from )
16:12:31	246/246	---MCZ	404	error ('Not%20Found')	text/html	date:Tue,%2005%20Mar%202019%2004:12:30%20GMT	https://g1-globosaude.com/robots.txt		(from )
