[bemestar.meiahora.info/dnf-pop/index.html]
[backblue.gif]
[fade.gif]
[index.html]
[bemestar.meiahora.info/wp-content/plugins/thrive-visual-editor/landing-page/templates/css/base1cd2.css]
[bemestar.meiahora.info/feed/index.html]
[bemestar.meiahora.info/comments/feed/index.html]
[bemestar.meiahora.info/wp-content/themes/twentyseventeen/style8e83.css]
[bemestar.meiahora.info/wp-content/plugins/thrive-visual-editor/editor/css/thrive_flat1cd2.css]
[bemestar.meiahora.info/wp-includes/js/jquery/jquery-migrate.min330a.js]
[bemestar.meiahora.info/wp-content/plugins/duracelltomi-google-tag-manager/js/gtm4wp-form-move-tracker2c00.js]
[bemestar.meiahora.info/xmlrpc0db0.php]
[bemestar.meiahora.info/wp-includes/js/jquery/jqueryb8ff.js]
[bemestar.meiahora.info/wp-includes/wlwmanifest.xml]
[bemestar.meiahora.info/wp-json/index.html]
[bemestar.meiahora.info/wp-json/oembed/1.0/embed72f2.json]
[bemestar.meiahora.info/wp-json/oembed/1.0/embed4176]
[portalsaude.acessovip.net.br/wp-content/uploads/2019/02/foundation_pattern-2.jpg]
[saudehoje.meiahora.info/wp-content/uploads/2019/04/e118819d145b5f6f184f88246890fb1a.jpg]
[horanoticia.com/wp-content/uploads/2019/03/proxima_pagina_2_fundo_transparente-300x94.png]
[bemestar.meiahora.info/wp-includes/js/imagesloaded.min55a0.js]
[bemestar.meiahora.info/wp-includes/js/masonry.mind617.js]
[bemestar.meiahora.info/wp-includes/js/jquery/jquery.masonry.minef70.js]
[bemestar.meiahora.info/wp-content/plugins/thrive-visual-editor/editor/js/dist/frontend.min1cd2.js]
[bemestar.meiahora.info/wp-content/themes/twentyseventeen/assets/js/skip-link-focus-fix5152.js]
[bemestar.meiahora.info/wp-content/themes/twentyseventeen/assets/js/global5152.js]
[bemestar.meiahora.info/wp-content/themes/twentyseventeen/assets/js/jquery.scrollTo431f.js]
[bemestar.meiahora.info/wp-content/plugins/thrive-visual-editor/thrive-dashboard/js/dist/frontend.mind63f.js]
[bemestar.meiahora.info/dnf-pop/index.html]
[bemestar.meiahora.info/wp-content/plugins/thrive-visual-editor/landing-page/templates/css/base1cd2.css]
[bemestar.meiahora.info/wp-includes/js/wp-embed.min8e83.js]
[bemestar.meiahora.info/wp-content/plugins/thrive-visual-editor/editor/css/fonts/thrvicomoon/icomoonf2e9.eot]
[bemestar.meiahora.info/wp-content/plugins/thrive-visual-editor/editor/css/fonts/thrvicomoon/icomoond41d.eot]
[bemestar.meiahora.info/wp-content/plugins/thrive-visual-editor/editor/css/fonts/thrvicomoon/icomoonf2e9.ttf]
[bemestar.meiahora.info/wp-content/plugins/thrive-visual-editor/editor/css/fonts/thrvicomoon/icomoonf2e9.woff]
[bemestar.meiahora.info/wp-content/plugins/thrive-visual-editor/editor/css/fonts/thrvicomoon/icomoonf2e9.svg]
[bemestar.meiahora.info/wp-content/plugins/thrive-visual-editor/editor/css/images/cc_amex.png]
[bemestar.meiahora.info/wp-content/plugins/thrive-visual-editor/editor/css/images/cc_discover.png]
[bemestar.meiahora.info/wp-content/plugins/thrive-visual-editor/editor/css/images/cc_mc.png]
[bemestar.meiahora.info/wp-content/plugins/thrive-visual-editor/editor/css/images/cc_paypal.png]
[bemestar.meiahora.info/wp-content/plugins/thrive-visual-editor/editor/css/images/cc_visa.png]
[bemestar.meiahora.info/wp-content/plugins/thrive-visual-editor/editor/css/images/loader_transparent.gif]
[bemestar.meiahora.info/wp-content/plugins/thrive-visual-editor/editor/css/images/flat_vSep.png]
[bemestar.meiahora.info/wp-content/plugins/thrive-visual-editor/editor/css/images/stars.png]
[bemestar.meiahora.info/wp-content/plugins/thrive-visual-editor/editor/css/images/video_frame_3.png]
[bemestar.meiahora.info/wp-content/plugins/thrive-visual-editor/editor/css/images/video_frame_4.png]
[bemestar.meiahora.info/wp-content/plugins/thrive-visual-editor/editor/css/images/video_frame_6.png]
[bemestar.meiahora.info/wp-content/plugins/thrive-visual-editor/editor/css/images/rv_style_grey_monitor_full.png]
[bemestar.meiahora.info/wp-content/plugins/thrive-visual-editor/editor/css/images/rv_style_black_monitor_full.png]
[bemestar.meiahora.info/wp-content/plugins/thrive-visual-editor/editor/css/images/rv_style_black_tablet_full.png]
[bemestar.meiahora.info/wp-content/plugins/thrive-visual-editor/editor/css/images/rv_style_white_tablet_full.png]
[bemestar.meiahora.info/wp-content/plugins/thrive-visual-editor/editor/css/images/tve_lock.png]
[bemestar.meiahora.info/wp-content/plugins/thrive-visual-editor/editor/css/images/btn_black.png]
[bemestar.meiahora.info/wp-content/plugins/thrive-visual-editor/editor/css/images/btn_blue.png]
[bemestar.meiahora.info/wp-content/plugins/thrive-visual-editor/editor/css/images/btn_green.png]
[bemestar.meiahora.info/wp-content/plugins/thrive-visual-editor/editor/css/images/btn_orange.png]
[bemestar.meiahora.info/wp-content/plugins/thrive-visual-editor/editor/css/images/btn_purple.png]
[bemestar.meiahora.info/wp-content/plugins/thrive-visual-editor/editor/css/images/btn_red.png]
[bemestar.meiahora.info/wp-content/plugins/thrive-visual-editor/editor/css/images/btn_teal.png]
[bemestar.meiahora.info/wp-content/plugins/thrive-visual-editor/editor/css/images/btn_white.png]
[bemestar.meiahora.info/wp-content/plugins/thrive-visual-editor/editor/css/images/btn_small_black.png]
[bemestar.meiahora.info/wp-content/plugins/thrive-visual-editor/editor/css/images/btn_small_blue.png]
[bemestar.meiahora.info/wp-content/plugins/thrive-visual-editor/editor/css/images/btn_small_green.png]
[bemestar.meiahora.info/wp-content/plugins/thrive-visual-editor/editor/css/images/btn_small_orange.png]
[bemestar.meiahora.info/wp-content/plugins/thrive-visual-editor/editor/css/images/btn_small_purple.png]
[bemestar.meiahora.info/wp-content/plugins/thrive-visual-editor/editor/css/images/btn_small_red.png]
[bemestar.meiahora.info/wp-content/plugins/thrive-visual-editor/editor/css/images/btn_small_teal.png]
[bemestar.meiahora.info/wp-content/plugins/thrive-visual-editor/editor/css/images/btn_small_white.png]
[bemestar.meiahora.info/wp-content/plugins/thrive-visual-editor/editor/css/images/btn_big_black.png]
[bemestar.meiahora.info/wp-content/plugins/thrive-visual-editor/editor/css/images/btn_big_blue.png]
[bemestar.meiahora.info/wp-content/plugins/thrive-visual-editor/editor/css/images/btn_big_green.png]
[bemestar.meiahora.info/wp-content/plugins/thrive-visual-editor/editor/css/images/btn_big_orange.png]
[bemestar.meiahora.info/wp-content/plugins/thrive-visual-editor/editor/css/images/btn_big_purple.png]
[bemestar.meiahora.info/wp-content/plugins/thrive-visual-editor/editor/css/images/btn_big_red.png]
[bemestar.meiahora.info/wp-content/plugins/thrive-visual-editor/editor/css/images/btn_big_teal.png]
[bemestar.meiahora.info/wp-content/plugins/thrive-visual-editor/editor/css/images/btn_big_white.png]
[bemestar.meiahora.info/wp-content/plugins/thrive-visual-editor/editor/css/images/btn_huge_black.png]
[bemestar.meiahora.info/wp-content/plugins/thrive-visual-editor/editor/css/images/btn_huge_blue.png]
[bemestar.meiahora.info/wp-content/plugins/thrive-visual-editor/editor/css/images/btn_huge_green.png]
[bemestar.meiahora.info/wp-content/plugins/thrive-visual-editor/editor/css/images/btn_huge_orange.png]
[bemestar.meiahora.info/wp-content/plugins/thrive-visual-editor/editor/css/images/btn_huge_purple.png]
[bemestar.meiahora.info/wp-content/plugins/thrive-visual-editor/editor/css/images/btn_huge_red.png]
[bemestar.meiahora.info/wp-content/plugins/thrive-visual-editor/editor/css/images/btn_huge_teal.png]
[bemestar.meiahora.info/wp-content/plugins/thrive-visual-editor/editor/css/images/btn_huge_white.png]
[bemestar.meiahora.info/wp-content/plugins/thrive-visual-editor/editor/css/images/black_s1_f.png]
[bemestar.meiahora.info/wp-content/plugins/thrive-visual-editor/editor/css/images/black_s3_f.png]
[bemestar.meiahora.info/wp-content/plugins/thrive-visual-editor/editor/css/images/blue_s1_f.png]
[bemestar.meiahora.info/wp-content/plugins/thrive-visual-editor/editor/css/images/blue_s3_f.png]
[bemestar.meiahora.info/wp-content/plugins/thrive-visual-editor/editor/css/images/green_s1_f.png]
[bemestar.meiahora.info/wp-content/plugins/thrive-visual-editor/editor/css/images/green_s3_f.png]
[bemestar.meiahora.info/wp-content/plugins/thrive-visual-editor/editor/css/images/orange_s1_f.png]
[bemestar.meiahora.info/wp-content/plugins/thrive-visual-editor/editor/css/images/orange_s3_f.png]
[bemestar.meiahora.info/wp-content/plugins/thrive-visual-editor/editor/css/images/purple_s1_f.png]
[bemestar.meiahora.info/wp-content/plugins/thrive-visual-editor/editor/css/images/purple_s3_f.png]
[bemestar.meiahora.info/wp-content/plugins/thrive-visual-editor/editor/css/images/red_s1_f.png]
[bemestar.meiahora.info/wp-content/plugins/thrive-visual-editor/editor/css/images/red_s3_f.png]
[bemestar.meiahora.info/wp-content/plugins/thrive-visual-editor/editor/css/images/teal_s1_f.png]
[bemestar.meiahora.info/wp-content/plugins/thrive-visual-editor/editor/css/images/teal_s3_f.png]
[bemestar.meiahora.info/wp-content/plugins/thrive-visual-editor/editor/css/images/white_s1_f.png]
[bemestar.meiahora.info/wp-content/plugins/thrive-visual-editor/editor/css/images/white_s3_f.png]
[bemestar.meiahora.info/wp-content/plugins/thrive-visual-editor/editor/css/images/cta_arrows.png]
[bemestar.meiahora.info/wp-content/plugins/thrive-visual-editor/editor/css/images/cta_arrow_black.png]
[bemestar.meiahora.info/wp-content/plugins/thrive-visual-editor/editor/css/images/cta_arrow_blue.png]
[bemestar.meiahora.info/wp-content/plugins/thrive-visual-editor/editor/css/images/cta_arrow_green.png]
[bemestar.meiahora.info/wp-content/plugins/thrive-visual-editor/editor/css/images/cta_arrow_orange.png]
[bemestar.meiahora.info/wp-content/plugins/thrive-visual-editor/editor/css/images/cta_arrow_purple.png]
[bemestar.meiahora.info/wp-content/plugins/thrive-visual-editor/editor/css/images/cta_arrow_red.png]
[bemestar.meiahora.info/wp-content/plugins/thrive-visual-editor/editor/css/images/cta_arrow_teal.png]
[bemestar.meiahora.info/wp-content/plugins/thrive-visual-editor/editor/css/images/cta_arrow_white.png]
[bemestar.meiahora.info/wp-content/plugins/thrive-visual-editor/editor/css/images/qc_black.png]
[bemestar.meiahora.info/wp-content/plugins/thrive-visual-editor/editor/css/images/qc_r_black.png]
[bemestar.meiahora.info/wp-content/plugins/thrive-visual-editor/editor/css/images/q_r_black.png]
[bemestar.meiahora.info/wp-content/plugins/thrive-visual-editor/editor/css/images/q_l_black.png]
[bemestar.meiahora.info/wp-content/plugins/thrive-visual-editor/editor/css/images/qc_blue.png]
[bemestar.meiahora.info/wp-content/plugins/thrive-visual-editor/editor/css/images/qc_r_blue.png]
[bemestar.meiahora.info/wp-content/plugins/thrive-visual-editor/editor/css/images/q_r_blue.png]
[bemestar.meiahora.info/wp-content/plugins/thrive-visual-editor/editor/css/images/q_l_blue.png]
[bemestar.meiahora.info/wp-content/plugins/thrive-visual-editor/editor/css/images/qc_green.png]
[bemestar.meiahora.info/wp-content/plugins/thrive-visual-editor/editor/css/images/qc_r_green.png]
[bemestar.meiahora.info/wp-content/plugins/thrive-visual-editor/editor/css/images/q_r_green.png]
[bemestar.meiahora.info/wp-content/plugins/thrive-visual-editor/editor/css/images/q_l_green.png]
[bemestar.meiahora.info/wp-content/plugins/thrive-visual-editor/editor/css/images/qc_orange.png]
[bemestar.meiahora.info/wp-content/plugins/thrive-visual-editor/editor/css/images/qc_r_orange.png]
[bemestar.meiahora.info/wp-content/plugins/thrive-visual-editor/editor/css/images/q_r_orange.png]
[bemestar.meiahora.info/wp-content/plugins/thrive-visual-editor/editor/css/images/q_l_orange.png]
[bemestar.meiahora.info/wp-content/plugins/thrive-visual-editor/editor/css/images/qc_purple.png]
[bemestar.meiahora.info/wp-content/plugins/thrive-visual-editor/editor/css/images/qc_r_purple.png]
[bemestar.meiahora.info/wp-content/plugins/thrive-visual-editor/editor/css/images/q_r_purple.png]
[bemestar.meiahora.info/wp-content/plugins/thrive-visual-editor/editor/css/images/q_l_purple.png]
[bemestar.meiahora.info/wp-content/plugins/thrive-visual-editor/editor/css/images/qc_red.png]
[bemestar.meiahora.info/wp-content/plugins/thrive-visual-editor/editor/css/images/qc_r_red.png]
[bemestar.meiahora.info/wp-content/plugins/thrive-visual-editor/editor/css/images/q_r_red.png]
[bemestar.meiahora.info/wp-content/plugins/thrive-visual-editor/editor/css/images/q_l_red.png]
[bemestar.meiahora.info/wp-content/plugins/thrive-visual-editor/editor/css/images/qc_teal.png]
[bemestar.meiahora.info/wp-content/plugins/thrive-visual-editor/editor/css/images/qc_r_teal.png]
[bemestar.meiahora.info/wp-content/plugins/thrive-visual-editor/editor/css/images/q_r_teal.png]
[bemestar.meiahora.info/wp-content/plugins/thrive-visual-editor/editor/css/images/q_l_teal.png]
[bemestar.meiahora.info/wp-content/plugins/thrive-visual-editor/editor/css/images/qc_white.png]
[bemestar.meiahora.info/wp-content/plugins/thrive-visual-editor/editor/css/images/qc_r_white.png]
[bemestar.meiahora.info/wp-content/plugins/thrive-visual-editor/editor/css/images/q_r_white.png]
[bemestar.meiahora.info/wp-content/plugins/thrive-visual-editor/editor/css/images/q_l_white.png]
[bemestar.meiahora.info/wp-content/plugins/thrive-visual-editor/editor/css/images/ul1_f_black.png]
[bemestar.meiahora.info/wp-content/plugins/thrive-visual-editor/editor/css/images/ul2_f_black.png]
[bemestar.meiahora.info/wp-content/plugins/thrive-visual-editor/editor/css/images/ul3_f_black.png]
[bemestar.meiahora.info/wp-content/plugins/thrive-visual-editor/editor/css/images/ul4_f_black.png]
[bemestar.meiahora.info/wp-content/plugins/thrive-visual-editor/editor/css/images/ul5_f_black.png]
[bemestar.meiahora.info/wp-content/plugins/thrive-visual-editor/editor/css/images/ul6_f_black.png]
[bemestar.meiahora.info/wp-content/plugins/thrive-visual-editor/editor/css/images/ul7_f_black.png]
[bemestar.meiahora.info/wp-content/plugins/thrive-visual-editor/editor/css/images/ul1_f_blue.png]
[bemestar.meiahora.info/wp-content/plugins/thrive-visual-editor/editor/css/images/ul2_f_blue.png]
[bemestar.meiahora.info/wp-content/plugins/thrive-visual-editor/editor/css/images/ul3_f_blue.png]
[bemestar.meiahora.info/wp-content/plugins/thrive-visual-editor/editor/css/images/ul4_f_blue.png]
[bemestar.meiahora.info/wp-content/plugins/thrive-visual-editor/editor/css/images/ul5_f_blue.png]
[bemestar.meiahora.info/wp-content/plugins/thrive-visual-editor/editor/css/images/ul6_f_blue.png]
[bemestar.meiahora.info/wp-content/plugins/thrive-visual-editor/editor/css/images/ul7_f_blue.png]
[bemestar.meiahora.info/wp-content/plugins/thrive-visual-editor/editor/css/images/ul1_f_green.png]
[bemestar.meiahora.info/wp-content/plugins/thrive-visual-editor/editor/css/images/ul2_f_green.png]
[bemestar.meiahora.info/wp-content/plugins/thrive-visual-editor/editor/css/images/ul3_f_green.png]
[bemestar.meiahora.info/wp-content/plugins/thrive-visual-editor/editor/css/images/ul4_f_green.png]
[bemestar.meiahora.info/wp-content/plugins/thrive-visual-editor/editor/css/images/ul5_f_green.png]
[bemestar.meiahora.info/wp-content/plugins/thrive-visual-editor/editor/css/images/ul6_f_green.png]
[bemestar.meiahora.info/wp-content/plugins/thrive-visual-editor/editor/css/images/ul7_f_green.png]
[bemestar.meiahora.info/wp-content/plugins/thrive-visual-editor/editor/css/images/ul1_f_orange.png]
[bemestar.meiahora.info/wp-content/plugins/thrive-visual-editor/editor/css/images/ul2_f_orange.png]
[bemestar.meiahora.info/wp-content/plugins/thrive-visual-editor/editor/css/images/ul3_f_orange.png]
[bemestar.meiahora.info/wp-content/plugins/thrive-visual-editor/editor/css/images/ul4_f_orange.png]
[bemestar.meiahora.info/wp-content/plugins/thrive-visual-editor/editor/css/images/ul5_f_orange.png]
[bemestar.meiahora.info/wp-content/plugins/thrive-visual-editor/editor/css/images/ul6_f_orange.png]
[bemestar.meiahora.info/wp-content/plugins/thrive-visual-editor/editor/css/images/ul7_f_orange.png]
[bemestar.meiahora.info/wp-content/plugins/thrive-visual-editor/editor/css/images/ul1_f_purple.png]
[bemestar.meiahora.info/wp-content/plugins/thrive-visual-editor/editor/css/images/ul2_f_purple.png]
[bemestar.meiahora.info/wp-content/plugins/thrive-visual-editor/editor/css/images/ul3_f_purple.png]
[bemestar.meiahora.info/wp-content/plugins/thrive-visual-editor/editor/css/images/ul4_f_purple.png]
[bemestar.meiahora.info/wp-content/plugins/thrive-visual-editor/editor/css/images/ul5_f_purple.png]
[bemestar.meiahora.info/wp-content/plugins/thrive-visual-editor/editor/css/images/ul6_f_purple.png]
[bemestar.meiahora.info/wp-content/plugins/thrive-visual-editor/editor/css/images/ul7_f_purple.png]
[bemestar.meiahora.info/wp-content/plugins/thrive-visual-editor/editor/css/images/ul1_f_red.png]
[bemestar.meiahora.info/wp-content/plugins/thrive-visual-editor/editor/css/images/ul2_f_red.png]
[bemestar.meiahora.info/wp-content/plugins/thrive-visual-editor/editor/css/images/ul3_f_red.png]
[bemestar.meiahora.info/wp-content/plugins/thrive-visual-editor/editor/css/images/ul4_f_red.png]
[bemestar.meiahora.info/wp-content/plugins/thrive-visual-editor/editor/css/images/ul5_f_red.png]
[bemestar.meiahora.info/wp-content/plugins/thrive-visual-editor/editor/css/images/ul6_f_red.png]
[bemestar.meiahora.info/wp-content/plugins/thrive-visual-editor/editor/css/images/ul7_f_red.png]
[bemestar.meiahora.info/wp-content/plugins/thrive-visual-editor/editor/css/images/ul1_f_teal.png]
[bemestar.meiahora.info/wp-content/plugins/thrive-visual-editor/editor/css/images/ul2_f_teal.png]
[bemestar.meiahora.info/wp-content/plugins/thrive-visual-editor/editor/css/images/ul3_f_teal.png]
[bemestar.meiahora.info/wp-content/plugins/thrive-visual-editor/editor/css/images/ul4_f_teal.png]
[bemestar.meiahora.info/wp-content/plugins/thrive-visual-editor/editor/css/images/ul5_f_teal.png]
[bemestar.meiahora.info/wp-content/plugins/thrive-visual-editor/editor/css/images/ul6_f_teal.png]
[bemestar.meiahora.info/wp-content/plugins/thrive-visual-editor/editor/css/images/ul7_f_teal.png]
[bemestar.meiahora.info/wp-content/plugins/thrive-visual-editor/editor/css/images/ul1_f_white.png]
[bemestar.meiahora.info/wp-content/plugins/thrive-visual-editor/editor/css/images/ul2_f_white.png]
[bemestar.meiahora.info/wp-content/plugins/thrive-visual-editor/editor/css/images/ul3_f_white.png]
[bemestar.meiahora.info/wp-content/plugins/thrive-visual-editor/editor/css/images/ul4_f_white.png]
[bemestar.meiahora.info/wp-content/plugins/thrive-visual-editor/editor/css/images/ul5_f_white.png]
[bemestar.meiahora.info/wp-content/plugins/thrive-visual-editor/editor/css/images/ul6_f_white.png]
[bemestar.meiahora.info/wp-content/plugins/thrive-visual-editor/editor/css/images/ul7_f_white.png]
[bemestar.meiahora.info/wp-content/plugins/thrive-visual-editor/editor/css/images/flat_sep2.png]
[bemestar.meiahora.info/wp-content/plugins/thrive-visual-editor/editor/css/images/flat_sep3.png]
[bemestar.meiahora.info/wp-content/plugins/thrive-visual-editor/editor/css/images/flat_sep4.png]
[bemestar.meiahora.info/wp-content/plugins/thrive-visual-editor/editor/css/images/toggle_closed.png]
[bemestar.meiahora.info/wp-content/plugins/thrive-visual-editor/editor/css/images/tw.png]
[bemestar.meiahora.info/wp-content/plugins/thrive-visual-editor/editor/css/thrive_flat1cd2.css]
[bemestar.meiahora.info/wp-content/themes/twentyseventeen/style8e83.css]
[bemestar.meiahora.info/indexba86.html]
[bemestar.meiahora.info/wp-content/plugins/thrive-visual-editor/editor/css/fonts/thrvicomoon/icomoonf2e9.svg]
